{
  "surveys": [
    {
      "id": "1",
      "title": "My first survey",
      "authorName": "Nicolas Fornicola",
      "authorEmail": "Nic_F@email.com",
      "shortName": "Nic_F",
      "approvedBy": "Brett Hammit",
      "dateCreated": "DateC",
      "dateApproved": "DateA",
      "approved": "T",
      "desc": "This is my first survey I think its neat",
      "questions": [
        {
          "questionTitle": "Best IceCream",
          "questionType": "Multiple Choice",
          "questionRequired": "true",
          "questionAnswers": [
            "Choco",
            "Vanilla",
            "Strawberry"
          ] 
        }
      ] 
    },
    {
      "id": "2",
      "title": "Favorite Games",
      "authorName": "Carter LesLord",
      "authorEmail": "Carter@email.co",
      "shortName": "Car_L",
      "approvedBy": "Brett Hammit",
      "dateCreated": "DateC",
      "dateApproved": "DateA",
      "approved": "T",
      "desc": "Epic gamer moments are found in this survey!",
      "questions": [
        {
          "questionTitle": "Best Action Game",
          "questionType": "Multiple Choice",
          "questionRequired": "false",
          "questionAnswers": [
            "COD",
            "Battlefield",
            "Fornite"
          ] 
        },
        {
          "questionTitle": "Best Story Game",
          "questionType": "Multiple Choice",
          "questionRequired": "true",
          "questionAnswers": [
            "BOTW",
            "ZELDA",
            "LONK"
          ] 
        },
        {
          "questionTitle": "Do you mike minecraft",
          "questionType": "Likert Scale",
          "questionRequired": "false",
          "questionAnswers": [
            "Like",
            "",
            "Neutral",
            "",
            "Dislike"
          ] 
        },
        {
          "questionTitle": "Whats your favorite thing to do in minecraft",
          "questionType": "Short Answer",
          "questionRequired": "false",
          "questionAnswers": [
            ""
          ] 
        },
        {
          "questionTitle": "Mike Loves mikecraft",
          "questionType": "TF",
          "questionRequired": "true",
          "questionAnswers": [
            "True",
            "False"
          ] 
        }
      ] 
     
    },
    {
      "id": "3",
      "title": "Best Bear Survey",
      "authorName": "Bearstine Bears",
      "authorEmail": "BearMan@email.com",
      "shortName": "Bea_B",
      "approvedBy": "Eden Barnhouse",
      "dateCreated": "DateC",
      "dateApproved": "DateA",
      "approved": "T",
      "desc": "Survey about the bestest kind of bear out there",
      "questions": [
        {
          "questionTitle": "Best Beat",
          "questionType": "Multiple Choice",
          "questionRequired": "true",
          "questionAnswers": [
            "Black",
            "Brown",
            "Polar",
            "Panda"
          ] 
        }
      ] 
    },
    {
      "id": "4",
      "title": "Best Programming Language",
      "authorName": "Nicolas Fornicola",
      "authorEmail": "Nic_F@email.com",
      "shortName": "Nic_F",
      "approvedBy": "Eden Barnhouse",
      "dateCreated": "DateC",
      "dateApproved": "DateA",
      "approved": "F",
      "desc": "There can only be one",
      "questions": [
        {
          "questionTitle": "Best Programming Language",
          "questionType": "Multiple Choice",
          "questionRequired": "true",
          "questionAnswers": [
            "C++",
            "Java",
            "JS",
            "HTML haha no"
          ] 
        }
      ] 
    },
    {
      "id": "5",
      "title": "IceCream",
      "authorName": "Nicolas Fornicola",
      "authorEmail": "Nic_F@email.com",
      "shortName": "Nic_F",
      "approvedBy": "Eden Barnhouse",
      "dateCreated": "DateC",
      "dateApproved": "DateA",
      "approved": "F",
      "desc": "I scream for icecream",
      "questions": [
        {
          "questionTitle": "Best Day",
          "questionType": "Multiple Choice",
          "questionRequired": "true",
          "questionAnswers": [
            "Wed",
            "Fri",
            "Tues"
          ] 
        }
      ]
    },
    {
      "id": "6",
      "title": "The Best Sport",
      "authorName": "Nicolas Fornicola",
      "authorEmail": "Nic_F@email.com",
      "shortName": "Nic_F",
      "approvedBy": "Eden Barnhouse",
      "dateCreated": "DateC",
      "dateApproved": "DateA",
      "approved": "F",
      "desc": "The apex legends of sports is...",
      "questions": [
        {
          "questionTitle": "Best Sport",
          "questionType": "Multiple Choice",
          "questionRequired": "true",
          "questionAnswers": [
            "Soccer",
            "Football",
            "Hockey",
            "Baseball"
          ] 
        }
      ]
    },
    {
      "id": "7",
      "title": "Dogs",
      "authorName": "Nicolas Fornicola",
      "authorEmail": "Nic_F@email.com",
      "shortName": "Nic_F",
      "approvedBy": "Eden Barnhouse",
      "dateCreated": "DateC",
      "dateApproved": "DateA",
      "approved": "T",
      "desc": "What type of doggy is the best :)",
      "questions": [
        {
          "questionTitle": "Best Doggy",
          "questionType": "Multiple Choice",
          "questionRequired": "true",
          "questionAnswers": [
            "St. Bernese Mountain Dog",
            "Doodle",
            "Lab",
            "Mozzy"
          ] 
        }
      ]
    }
    
  ]
}

